[
  {
    "book": "ps",
    "number": 12,
    "stanzas": [1, 6, 7]
  },
  {
    "book": "ps",
    "number": 17,
    "stanzas": [4]
  },
  {
    "book": "ps",
    "number": 99,
    "stanzas": [2, 4, 5]
  },
  {
    "book": "geloofsbelydenis",
    "number": 1,
    "stanzas": [1]
  },
  {
    "book": "ps",
    "number": 85,
    "stanzas": [3, 4]
  }
]
